-0.571692705154419	-0.4497706890106201	0.01958838850259781
-0.3892098069190979	1.5048696994781494	-0.11792057007551193
-0.5937277674674988	-1.0037719011306763	0.11150500178337097
-0.46744638681411743	-0.3034416139125824	0.23924267292022705
