0.3618198037147522	2.3227953910827637	-0.02061648666858673
1.3189809322357178	-1.5408356189727783	-0.9345288276672363
0.15161168575286865	-1.2747578620910645	0.32425516843795776
0.2736285924911499	1.282628059387207	-0.0024305852130055428
